[
  {"trigger":"Reboot","command":"shutdown -r","ground":"background","voice":"reboot","allowParams": "false"},
  {"trigger":"Gnome Editor","command":"gedit","ground":"foreground","voice":"edit","allowParams": "false"},
  {"trigger":"yum update","command":"yum -y update","ground":"background","voice":"yum update","allowParams": "false"},
  {"trigger":"apt update","command":"apt-get -y update","ground":"background","voice":"update","allowParams": "false"},
  {"trigger":"X9","command":"/home/elea/alexa-scripts/bash/x9.sh","ground":"background","voice":"X 9","allowParams": "false"},
  {"trigger":"X8","command":"/home/elea/alexa-scripts/bash/x8.sh","ground":"background","voice":"X 8","allowParams": "false"},
  {"trigger":"X7","command":"/home/elea/alexa-scripts/bash/x7.sh","ground":"background","voice":"X 7","allowParams": "false"},
  {"trigger":"X6","command":"/home/elea/alexa-scripts/bash/x6.sh","ground":"background","voice":"X 6","allowParams": "false"},
  {"trigger":"X5","command":"/home/elea/alexa-scripts/bash/x5.sh","ground":"background","voice":"X 5","allowParams": "false"},
  {"trigger":"X4","command":"/home/elea/alexa-scripts/bash/x4.sh","ground":"background","voice":"X 4","allowParams": "false"},
  {"trigger":"X3","command":"/home/elea/alexa-scripts/bash/x3.sh","ground":"background","voice":"X 3","allowParams": "false"},
  {"trigger":"X2","command":"/home/elea/alexa-scripts/bash/x2.sh","ground":"background","voice":"X 2","allowParams": "false"},
  {"trigger":"X1","command":"/home/elea/alexa-scripts/bash/x1.sh","ground":"background","voice":"X 1","allowParams": "false"},
  {"trigger":"Tic Tac Toe","command":"/home/elea/alexa-scripts/bash/start-game.sh","ground":"background","voice":"game","allowParams": "false"},
  {"trigger":"Spiral","command":"/home/elea/alexa-scripts/bash/start-spiral.sh","ground":"background","voice":"spiral","allowParams": "false"}
]
